module gitlab.com/Grouumf/ATACdemultiplex/ATACdemultiplexUtils

go 1.15

require (
	github.com/biogo/hts v1.2.2
	github.com/biogo/store v0.0.0-20201120204734-aad293a2328f
	github.com/dsnet/compress v0.0.1
	github.com/jinzhu/copier v0.1.0
	github.com/klauspost/pgzip v1.2.5
)
